<?xml version="1.0" encoding="utf-8"?>
<!-- Generator: Adobe Illustrator 24.3.0, SVG Export Plug-In . SVG Version: 6.00 Build 0)  -->
<svg version="1.1" id="Layer_1" xmlns="http://www.w3.org/2000/svg" xmlns:xlink="http://www.w3.org/1999/xlink" x="0px" y="0px"
	 viewBox="0 0 52.93 47.55" style="enable-background:new 0 0 52.93 47.55;" xml:space="preserve">
<style type="text/css">
	.st0{opacity:0.8;}
	.st1{fill:#EAD243;}
	.st2{fill:#93C83E;}
	.st3{fill:#F89F71;}
	.st4{fill:#3E567B;}
	.st5{fill:#7CCDCB;}
	.st6{fill:#A9A8A8;}
	.st7{fill:#FFFFFF;}
	.st8{fill:#00B5B6;}
	.st9{opacity:0.8;fill:#FFFFFF;}
	.st10{fill:#F7E55A;}
	.st11{fill:#F04B31;}
</style>
<g id="pFFqgv_3_">
	<g>
		<path class="st7" d="M24.59,37.67c-4.57,0-9.14,0-13.71,0c-0.86,0-0.97-0.11-0.97-0.95c0-6.34,0-12.68-0.01-19.02
			c0-0.47,0.16-0.76,0.55-1.03c4.52-3.14,9.03-6.29,13.53-9.45c0.47-0.33,0.81-0.31,1.27,0.01c4.48,3.15,8.98,6.29,13.48,9.41
			c0.4,0.28,0.56,0.58,0.56,1.08c-0.02,6.34-0.01,12.68-0.01,19.02c0,0.83-0.09,0.93-0.92,0.93C33.77,37.67,29.18,37.67,24.59,37.67
			z M37.81,17.43c-0.14-0.12-0.23-0.19-0.32-0.26c-4.17-2.91-8.34-5.82-12.5-8.74c-0.33-0.23-0.54-0.16-0.83,0.04
			c-3.92,2.75-7.84,5.48-11.77,8.22c-0.32,0.22-0.64,0.45-1.02,0.72c4.43,4.1,8.81,8.15,13.22,12.23
			C29.02,25.57,33.4,21.52,37.81,17.43z M12.34,36.48c8.23,0,16.32,0,24.53,0c-3.48-2.43-6.84-4.78-10.24-7.15
			c-0.52,0.48-1.02,0.92-1.5,1.39c-0.35,0.34-0.68,0.34-1.04,0c-0.49-0.46-0.99-0.91-1.51-1.39C19.18,31.7,15.82,34.05,12.34,36.48z
			 M11.09,18.7c0,5.8,0,11.49,0,17.26c3.59-2.5,7.09-4.95,10.64-7.43C18.16,25.24,14.66,22,11.09,18.7z M27.47,28.54
			c3.57,2.49,7.07,4.94,10.66,7.44c0-5.81,0-11.49,0-17.3C34.54,22,31.04,25.24,27.47,28.54z"/>
		<path class="st8" d="M30.15,21.71c-0.17,0.23-0.32,0.48-0.51,0.69c-1.31,1.45-3.02,1.92-4.9,1.85c-0.65-0.02-1.31-0.12-1.94-0.28
			c-2.38-0.63-3.74-2.4-3.79-4.87c-0.06-2.99,1.67-5.43,4.3-6.04c1.33-0.31,2.65-0.27,3.91,0.31c1.62,0.74,2.52,2.02,2.66,3.8
			c0.13,1.71-0.58,3.06-1.96,4.03c-0.37,0.26-0.86,0.42-1.32,0.49c-0.81,0.13-1.1-0.07-1.45-0.85c-0.11,0.09-0.21,0.17-0.31,0.25
			c-1.34,1.09-2.89,0.64-3.43-1.01c-0.48-1.46,0.24-3.48,1.54-4.33c1.13-0.74,2.02-0.61,3.15,0.52c0.08-0.26,0.14-0.49,0.22-0.76
			c0.31,0,0.64,0,1.01,0c-0.3,1.4-0.59,2.78-0.89,4.15c-0.03,0.14-0.09,0.28-0.07,0.41c0.02,0.2,0.03,0.48,0.16,0.57
			c0.14,0.09,0.43,0.07,0.6-0.02c1.12-0.56,1.72-1.52,1.86-2.73c0.23-2.04-1.13-3.75-3.24-4.08c-1.87-0.3-3.55,0.13-4.76,1.66
			c-1.24,1.59-1.5,3.41-0.78,5.29c0.68,1.78,2.22,2.41,3.97,2.58c1.83,0.18,3.52-0.13,4.85-1.58c0.19-0.21,0.67-0.16,1.01-0.23
			C30.09,21.61,30.12,21.66,30.15,21.71z M25.8,17.96c-0.02-0.71-0.18-1.31-0.83-1.64c-0.51-0.26-1-0.17-1.45,0.17
			c-0.87,0.64-1.41,2.3-1.1,3.33c0.31,1.04,1.2,1.36,2.08,0.73C25.4,19.91,25.71,18.97,25.8,17.96z"/>
	</g>
</g>
</svg>
