<?xml version="1.0" encoding="UTF-8"?>
<svg width="35px" height="36px" viewBox="0 0 35 36" xmlns="http://www.w3.org/2000/svg" xmlns:xlink="http://www.w3.org/1999/xlink" version="1.1">
 <!-- Generated by Pixelmator Pro 2.1.3 -->
 <g id="group">
  <path id="Trazado" d="M24.38 31.31 C26.26 29.22 28.11 27.17 29.95 25.12 30.67 24.32 31.38 23.51 32.11 22.72 32.81 21.97 33.62 21.9 34.26 22.5 34.87 23.07 34.88 23.87 34.23 24.6 31.36 27.81 28.48 31.02 25.59 34.22 24.92 34.96 24.11 34.99 23.38 34.3 21.76 32.76 20.15 31.21 18.55 29.65 17.85 28.97 17.83 28.17 18.43 27.56 19.01 26.97 19.84 26.97 20.53 27.62 21.82 28.84 23.08 30.06 24.38 31.31 Z" fill="#00b5b6" fill-opacity="1" stroke="none"/>
  <g id="group-1">
   <g id="group-2">
    <path id="Trazado-1" d="M28.74 0.16 C29.47 0.58 29.73 1.18 29.73 2.04 29.7 7.61 29.72 13.19 29.71 18.76 29.71 19.74 29.26 20.31 28.47 20.38 27.53 20.46 26.91 19.88 26.89 18.85 26.87 17.19 26.88 15.54 26.88 13.88 26.88 10.57 26.88 7.25 26.88 3.94 26.88 3.66 26.88 3.37 26.88 3.05 18.9 3.05 11 3.05 3.06 3.05 L3.06 32.82 3.92 32.82 13.54 32.82 C14.62 32.82 15.14 33.12 15.35 33.85 15.57 34.61 15.3 35.1 14.37 35.67 10 35.67 5.64 35.67 1.27 35.67 0.45 35.31 0.16 34.68 0.16 33.79 0.18 23.21 0.18 12.62 0.16 2.04 0.16 1.15 0.45 0.52 1.27 0.16 Z" fill="#3e567b" fill-opacity="1" stroke="none"/>
    <path id="Trazado-2" d="M15.17 8.52 L21.32 8.52 C22.39 8.52 23.05 9.05 23.06 9.92 23.07 10.8 22.43 11.37 21.36 11.37 17.26 11.38 13.16 11.38 9.06 11.37 8 11.37 7.36 10.8 7.37 9.92 7.38 9.03 8 8.53 9.1 8.52 11.12 8.51 13.14 8.52 15.17 8.52 Z" fill="#3e567b" fill-opacity="1" stroke="none"/>
    <path id="Trazado-3" d="M15.17 16.39 L21.4 16.39 C22.42 16.39 23.05 16.93 23.06 17.78 23.07 18.63 22.43 19.22 21.44 19.22 17.29 19.23 13.13 19.23 8.98 19.22 7.99 19.22 7.36 18.63 7.37 17.77 7.38 16.9 7.98 16.39 9.02 16.39 Z" fill="#3e567b" fill-opacity="1" stroke="none"/>
    <path id="Trazado-4" d="M10.66 26.84 C10.03 26.84 9.4 26.86 8.77 26.84 7.93 26.8 7.37 26.24 7.36 25.45 7.35 24.67 7.89 24.04 8.72 24.02 10.03 23.98 11.34 23.98 12.65 24.02 13.46 24.05 14.02 24.71 13.99 25.48 13.96 26.22 13.41 26.79 12.62 26.83 11.97 26.87 11.32 26.84 10.66 26.84 Z" fill="#3e567b" fill-opacity="1" stroke="none"/>
   </g>
  </g>
 </g>
</svg>
